{
  "albums": {
    "href": "https://api.spotify.com/v1/search?query=Muse&type=album&market=DK&offset=0&limit=3",
    "items": [
      {
        "album_type": "album",
        "artists": [
          {
            "external_urls": {
              "spotify": "https://open.spotify.com/artist/12Chz98pHFMPJEknJQMWvI"
            },
            "href": "https://api.spotify.com/v1/artists/12Chz98pHFMPJEknJQMWvI",
            "id": "12Chz98pHFMPJEknJQMWvI",
            "name": "Muse",
            "type": "artist",
            "uri": "spotify:artist:12Chz98pHFMPJEknJQMWvI"
          }
        ],
        "available_markets": [
          "AD",
          "AR",
          "AT",
          "AU",
          "BE",
          "BG",
          "BO",
          "BR",
          "CA",
          "CH",
          "CL",
          "CO",
          "CR",
          "CY",
          "CZ",
          "DE",
          "DK",
          "DO",
          "EC",
          "EE",
          "ES",
          "FI",
          "FR",
          "GB",
          "GR",
          "GT",
          "HK",
          "HN",
          "HU",
          "ID",
          "IE",
          "IL",
          "IS",
          "IT",
          "JP",
          "LI",
          "LT",
          "LU",
          "LV",
          "MC",
          "MT",
          "MX",
          "MY",
          "NI",
          "NL",
          "NO",
          "NZ",
          "PA",
          "PE",
          "PH",
          "PL",
          "PT",
          "PY",
          "RO",
          "SE",
          "SG",
          "SK",
          "SV",
          "TH",
          "TR",
          "TW",
          "US",
          "UY",
          "VN",
          "ZA"
        ],
        "external_urls": {
          "spotify": "https://open.spotify.com/album/0lw68yx3MhKflWFqCsGkIs"
        },
        "href": "https://api.spotify.com/v1/albums/0lw68yx3MhKflWFqCsGkIs",
        "id": "0lw68yx3MhKflWFqCsGkIs",
        "images": [
          {
            "height": 640,
            "url": "https://i.scdn.co/image/9e5288926fadb82f873ccf2b45300c3a6f65fa14",
            "width": 640
          },
          {
            "height": 300,
            "url": "https://i.scdn.co/image/f1cad0d6974d6236abd07a59106e8450d85cae24",
            "width": 300
          },
          {
            "height": 64,
            "url": "https://i.scdn.co/image/81a3f82578dc938c53efdcb405f6a3d3ebbf009f",
            "width": 64
          }
        ],
        "name": "Black Holes And Revelations",
        "release_date": "2006-06-19",
        "release_date_precision": "day",
        "type": "album",
        "uri": "spotify:album:0lw68yx3MhKflWFqCsGkIs"
      },
      {
        "album_type": "album",
        "artists": [
          {
            "external_urls": {
              "spotify": "https://open.spotify.com/artist/12Chz98pHFMPJEknJQMWvI"
            },
            "href": "https://api.spotify.com/v1/artists/12Chz98pHFMPJEknJQMWvI",
            "id": "12Chz98pHFMPJEknJQMWvI",
            "name": "Muse",
            "type": "artist",
            "uri": "spotify:artist:12Chz98pHFMPJEknJQMWvI"
          }
        ],
        "available_markets": [
          "AD",
          "AR",
          "AT",
          "AU",
          "BE",
          "BG",
          "BO",
          "BR",
          "CA",
          "CH",
          "CL",
          "CO",
          "CR",
          "CY",
          "CZ",
          "DE",
          "DK",
          "DO",
          "EC",
          "EE",
          "ES",
          "FI",
          "FR",
          "GB",
          "GR",
          "GT",
          "HK",
          "HN",
          "HU",
          "ID",
          "IE",
          "IL",
          "IS",
          "IT",
          "JP",
          "LI",
          "LT",
          "LU",
          "LV",
          "MC",
          "MT",
          "MX",
          "MY",
          "NI",
          "NL",
          "NO",
          "NZ",
          "PA",
          "PE",
          "PH",
          "PL",
          "PT",
          "PY",
          "RO",
          "SE",
          "SG",
          "SK",
          "SV",
          "TH",
          "TR",
          "TW",
          "US",
          "UY",
          "VN",
          "ZA"
        ],
        "external_urls": {
          "spotify": "https://open.spotify.com/album/0eFHYz8NmK75zSplL5qlfM"
        },
        "href": "https://api.spotify.com/v1/albums/0eFHYz8NmK75zSplL5qlfM",
        "id": "0eFHYz8NmK75zSplL5qlfM",
        "images": [
          {
            "height": 640,
            "url": "https://i.scdn.co/image/6e1be3ceda70250c701caee5a16bef205e94bc98",
            "width": 640
          },
          {
            "height": 300,
            "url": "https://i.scdn.co/image/28752dcf4b27ba14c1fc62f04ff469aa53c113d7",
            "width": 300
          },
          {
            "height": 64,
            "url": "https://i.scdn.co/image/26098aaa50a3450f0bac8f1a7d7677accf3f3cb6",
            "width": 64
          }
        ],
        "name": "The Resistance",
        "release_date": "2009-09-10",
        "release_date_precision": "day",
        "type": "album",
        "uri": "spotify:album:0eFHYz8NmK75zSplL5qlfM"
      },
      {
        "album_type": "album",
        "artists": [
          {
            "external_urls": {
              "spotify": "https://open.spotify.com/artist/12Chz98pHFMPJEknJQMWvI"
            },
            "href": "https://api.spotify.com/v1/artists/12Chz98pHFMPJEknJQMWvI",
            "id": "12Chz98pHFMPJEknJQMWvI",
            "name": "Muse",
            "type": "artist",
            "uri": "spotify:artist:12Chz98pHFMPJEknJQMWvI"
          }
        ],
        "available_markets": [
          "AD",
          "AR",
          "AT",
          "AU",
          "BE",
          "BG",
          "BO",
          "BR",
          "CA",
          "CH",
          "CL",
          "CO",
          "CR",
          "CY",
          "CZ",
          "DE",
          "DK",
          "DO",
          "EC",
          "EE",
          "ES",
          "FI",
          "FR",
          "GB",
          "GR",
          "GT",
          "HK",
          "HN",
          "HU",
          "ID",
          "IE",
          "IL",
          "IS",
          "IT",
          "JP",
          "LI",
          "LT",
          "LU",
          "LV",
          "MC",
          "MT",
          "MX",
          "MY",
          "NI",
          "NL",
          "NO",
          "NZ",
          "PA",
          "PE",
          "PH",
          "PL",
          "PT",
          "PY",
          "RO",
          "SE",
          "SG",
          "SK",
          "SV",
          "TH",
          "TR",
          "TW",
          "US",
          "UY",
          "VN",
          "ZA"
        ],
        "external_urls": {
          "spotify": "https://open.spotify.com/album/2wart5Qjnvx1fd7LPdQxgJ"
        },
        "href": "https://api.spotify.com/v1/albums/2wart5Qjnvx1fd7LPdQxgJ",
        "id": "2wart5Qjnvx1fd7LPdQxgJ",
        "images": [
          {
            "height": 640,
            "url": "https://i.scdn.co/image/849eecf3c9df835181c2970c435ac2d008346ea3",
            "width": 640
          },
          {
            "height": 300,
            "url": "https://i.scdn.co/image/8b6392caa83625135f0f53d6e2b0631bbe4c4c0b",
            "width": 300
          },
          {
            "height": 64,
            "url": "https://i.scdn.co/image/8978459cc3ad68b39bd6dbda418625b06ba5d80c",
            "width": 64
          }
        ],
        "name": "Drones",
        "release_date": "2015-06-04",
        "release_date_precision": "day",
        "type": "album",
        "uri": "spotify:album:2wart5Qjnvx1fd7LPdQxgJ"
      }
    ],
    "limit": 3,
    "next": "https://api.spotify.com/v1/search?query=Muse&type=album&market=DK&offset=3&limit=3",
    "offset": 0,
    "previous": null,
    "total": 1155
  },
  "artists": {
    "href": "https://api.spotify.com/v1/search?query=Muse&type=artist&market=DK&offset=0&limit=3",
    "items": [
      {
        "external_urls": {
          "spotify": "https://open.spotify.com/artist/12Chz98pHFMPJEknJQMWvI"
        },
        "followers": {
          "href": null,
          "total": 3629683
        },
        "genres": [
          "alternative rock",
          "modern rock",
          "permanent wave",
          "piano rock",
          "post-grunge",
          "rock"
        ],
        "href": "https://api.spotify.com/v1/artists/12Chz98pHFMPJEknJQMWvI",
        "id": "12Chz98pHFMPJEknJQMWvI",
        "images": [
          {
            "height": 640,
            "url": "https://i.scdn.co/image/19ac88c7aec1f68aa6e207aff29efa15d37336a7",
            "width": 640
          },
          {
            "height": 320,
            "url": "https://i.scdn.co/image/7ad2128db73a2814a1a96498404a5d9aabb4c15c",
            "width": 320
          },
          {
            "height": 160,
            "url": "https://i.scdn.co/image/f026a6204c28907e43e833eaa1820f9b674295ca",
            "width": 160
          }
        ],
        "name": "Muse",
        "popularity": 78,
        "type": "artist",
        "uri": "spotify:artist:12Chz98pHFMPJEknJQMWvI"
      },
      {
        "external_urls": {
          "spotify": "https://open.spotify.com/artist/15qpUkIDVVWsb60MTzCVsJ"
        },
        "followers": {
          "href": null,
          "total": 42
        },
        "genres": [],
        "href": "https://api.spotify.com/v1/artists/15qpUkIDVVWsb60MTzCVsJ",
        "id": "15qpUkIDVVWsb60MTzCVsJ",
        "images": [
          {
            "height": 640,
            "url": "https://i.scdn.co/image/13245132dd3751e58db6d3a94bc93aebb496a6e8",
            "width": 640
          },
          {
            "height": 300,
            "url": "https://i.scdn.co/image/b75915f7e064a2645343a5ee29c37726d0defe3e",
            "width": 300
          },
          {
            "height": 64,
            "url": "https://i.scdn.co/image/64803e843e21fd189cd618ba8dcb3dba11c52811",
            "width": 64
          }
        ],
        "name": "Clip Muse",
        "popularity": 22,
        "type": "artist",
        "uri": "spotify:artist:15qpUkIDVVWsb60MTzCVsJ"
      },
      {
        "external_urls": {
          "spotify": "https://open.spotify.com/artist/0EcCExwuVReDp8Y86sLXUo"
        },
        "followers": {
          "href": null,
          "total": 35
        },
        "genres": [],
        "href": "https://api.spotify.com/v1/artists/0EcCExwuVReDp8Y86sLXUo",
        "id": "0EcCExwuVReDp8Y86sLXUo",
        "images": [
          {
            "height": 640,
            "url": "https://i.scdn.co/image/fef4944016086c9f0afb7ee943ab0a0d746b30e7",
            "width": 640
          },
          {
            "height": 320,
            "url": "https://i.scdn.co/image/39d74c5be6e3e929bdca315b2a4c60fc6c581487",
            "width": 320
          },
          {
            "height": 160,
            "url": "https://i.scdn.co/image/ae04510bb2b9493375de9e3748651e4574de4084",
            "width": 160
          }
        ],
        "name": "Charlee Muse",
        "popularity": 30,
        "type": "artist",
        "uri": "spotify:artist:0EcCExwuVReDp8Y86sLXUo"
      }
    ],
    "limit": 3,
    "next": "https://api.spotify.com/v1/search?query=Muse&type=artist&market=DK&offset=3&limit=3",
    "offset": 0,
    "previous": null,
    "total": 189
  },
  "tracks": {
    "href": "https://api.spotify.com/v1/search?query=Muse&type=track&market=DK&offset=0&limit=3",
    "items": [
      {
        "album": {
          "album_type": "album",
          "artists": [
            {
              "external_urls": {
                "spotify": "https://open.spotify.com/artist/12Chz98pHFMPJEknJQMWvI"
              },
              "href": "https://api.spotify.com/v1/artists/12Chz98pHFMPJEknJQMWvI",
              "id": "12Chz98pHFMPJEknJQMWvI",
              "name": "Muse",
              "type": "artist",
              "uri": "spotify:artist:12Chz98pHFMPJEknJQMWvI"
            }
          ],
          "available_markets": [
            "AD",
            "AR",
            "AT",
            "AU",
            "BE",
            "BG",
            "BO",
            "BR",
            "CA",
            "CH",
            "CL",
            "CO",
            "CR",
            "CY",
            "CZ",
            "DE",
            "DK",
            "DO",
            "EC",
            "EE",
            "ES",
            "FI",
            "FR",
            "GB",
            "GR",
            "GT",
            "HK",
            "HN",
            "HU",
            "ID",
            "IE",
            "IL",
            "IS",
            "IT",
            "JP",
            "LI",
            "LT",
            "LU",
            "LV",
            "MC",
            "MT",
            "MX",
            "MY",
            "NI",
            "NL",
            "NO",
            "NZ",
            "PA",
            "PE",
            "PH",
            "PL",
            "PT",
            "PY",
            "RO",
            "SE",
            "SG",
            "SK",
            "SV",
            "TH",
            "TR",
            "TW",
            "US",
            "UY",
            "VN",
            "ZA"
          ],
          "external_urls": {
            "spotify": "https://open.spotify.com/album/0eFHYz8NmK75zSplL5qlfM"
          },
          "href": "https://api.spotify.com/v1/albums/0eFHYz8NmK75zSplL5qlfM",
          "id": "0eFHYz8NmK75zSplL5qlfM",
          "images": [
            {
              "height": 640,
              "url": "https://i.scdn.co/image/6e1be3ceda70250c701caee5a16bef205e94bc98",
              "width": 640
            },
            {
              "height": 300,
              "url": "https://i.scdn.co/image/28752dcf4b27ba14c1fc62f04ff469aa53c113d7",
              "width": 300
            },
            {
              "height": 64,
              "url": "https://i.scdn.co/image/26098aaa50a3450f0bac8f1a7d7677accf3f3cb6",
              "width": 64
            }
          ],
          "name": "The Resistance",
          "release_date": "2009-09-10",
          "release_date_precision": "day",
          "type": "album",
          "uri": "spotify:album:0eFHYz8NmK75zSplL5qlfM"
        },
        "artists": [
          {
            "external_urls": {
              "spotify": "https://open.spotify.com/artist/12Chz98pHFMPJEknJQMWvI"
            },
            "href": "https://api.spotify.com/v1/artists/12Chz98pHFMPJEknJQMWvI",
            "id": "12Chz98pHFMPJEknJQMWvI",
            "name": "Muse",
            "type": "artist",
            "uri": "spotify:artist:12Chz98pHFMPJEknJQMWvI"
          }
        ],
        "available_markets": [
          "AD",
          "AR",
          "AT",
          "AU",
          "BE",
          "BG",
          "BO",
          "BR",
          "CA",
          "CH",
          "CL",
          "CO",
          "CR",
          "CY",
          "CZ",
          "DE",
          "DK",
          "DO",
          "EC",
          "EE",
          "ES",
          "FI",
          "FR",
          "GB",
          "GR",
          "GT",
          "HK",
          "HN",
          "HU",
          "ID",
          "IE",
          "IL",
          "IS",
          "IT",
          "JP",
          "LI",
          "LT",
          "LU",
          "LV",
          "MC",
          "MT",
          "MX",
          "MY",
          "NI",
          "NL",
          "NO",
          "NZ",
          "PA",
          "PE",
          "PH",
          "PL",
          "PT",
          "PY",
          "RO",
          "SE",
          "SG",
          "SK",
          "SV",
          "TH",
          "TR",
          "TW",
          "US",
          "UY",
          "VN",
          "ZA"
        ],
        "disc_number": 1,
        "duration_ms": 304840,
        "explicit": false,
        "external_ids": {
          "isrc": "GBAHT0900320"
        },
        "external_urls": {
          "spotify": "https://open.spotify.com/track/4VqPOruhp5EdPBeR92t6lQ"
        },
        "href": "https://api.spotify.com/v1/tracks/4VqPOruhp5EdPBeR92t6lQ",
        "id": "4VqPOruhp5EdPBeR92t6lQ",
        "name": "Uprising",
        "popularity": 75,
        "preview_url": "https://p.scdn.co/mp3-preview/104ad0ea32356b9f3b2e95a8610f504c90b0026b?cid=774b29d4f13844c495f206cafdad9c86",
        "track_number": 1,
        "type": "track",
        "uri": "spotify:track:4VqPOruhp5EdPBeR92t6lQ"
      },
      {
        "album": {
          "album_type": "album",
          "artists": [
            {
              "external_urls": {
                "spotify": "https://open.spotify.com/artist/12Chz98pHFMPJEknJQMWvI"
              },
              "href": "https://api.spotify.com/v1/artists/12Chz98pHFMPJEknJQMWvI",
              "id": "12Chz98pHFMPJEknJQMWvI",
              "name": "Muse",
              "type": "artist",
              "uri": "spotify:artist:12Chz98pHFMPJEknJQMWvI"
            }
          ],
          "available_markets": [
            "AD",
            "AR",
            "AT",
            "AU",
            "BE",
            "BG",
            "BO",
            "BR",
            "CA",
            "CH",
            "CL",
            "CO",
            "CR",
            "CY",
            "CZ",
            "DE",
            "DK",
            "DO",
            "EC",
            "EE",
            "ES",
            "FI",
            "FR",
            "GB",
            "GR",
            "GT",
            "HK",
            "HN",
            "HU",
            "ID",
            "IE",
            "IL",
            "IS",
            "IT",
            "JP",
            "LI",
            "LT",
            "LU",
            "LV",
            "MC",
            "MT",
            "MX",
            "MY",
            "NI",
            "NL",
            "NO",
            "NZ",
            "PA",
            "PE",
            "PH",
            "PL",
            "PT",
            "PY",
            "RO",
            "SE",
            "SG",
            "SK",
            "SV",
            "TH",
            "TR",
            "TW",
            "US",
            "UY",
            "VN",
            "ZA"
          ],
          "external_urls": {
            "spotify": "https://open.spotify.com/album/0lw68yx3MhKflWFqCsGkIs"
          },
          "href": "https://api.spotify.com/v1/albums/0lw68yx3MhKflWFqCsGkIs",
          "id": "0lw68yx3MhKflWFqCsGkIs",
          "images": [
            {
              "height": 640,
              "url": "https://i.scdn.co/image/9e5288926fadb82f873ccf2b45300c3a6f65fa14",
              "width": 640
            },
            {
              "height": 300,
              "url": "https://i.scdn.co/image/f1cad0d6974d6236abd07a59106e8450d85cae24",
              "width": 300
            },
            {
              "height": 64,
              "url": "https://i.scdn.co/image/81a3f82578dc938c53efdcb405f6a3d3ebbf009f",
              "width": 64
            }
          ],
          "name": "Black Holes And Revelations",
          "release_date": "2006-06-19",
          "release_date_precision": "day",
          "type": "album",
          "uri": "spotify:album:0lw68yx3MhKflWFqCsGkIs"
        },
        "artists": [
          {
            "external_urls": {
              "spotify": "https://open.spotify.com/artist/12Chz98pHFMPJEknJQMWvI"
            },
            "href": "https://api.spotify.com/v1/artists/12Chz98pHFMPJEknJQMWvI",
            "id": "12Chz98pHFMPJEknJQMWvI",
            "name": "Muse",
            "type": "artist",
            "uri": "spotify:artist:12Chz98pHFMPJEknJQMWvI"
          }
        ],
        "available_markets": [
          "AD",
          "AR",
          "AT",
          "AU",
          "BE",
          "BG",
          "BO",
          "BR",
          "CA",
          "CH",
          "CL",
          "CO",
          "CR",
          "CY",
          "CZ",
          "DE",
          "DK",
          "DO",
          "EC",
          "EE",
          "ES",
          "FI",
          "FR",
          "GB",
          "GR",
          "GT",
          "HK",
          "HN",
          "HU",
          "ID",
          "IE",
          "IL",
          "IS",
          "IT",
          "JP",
          "LI",
          "LT",
          "LU",
          "LV",
          "MC",
          "MT",
          "MX",
          "MY",
          "NI",
          "NL",
          "NO",
          "NZ",
          "PA",
          "PE",
          "PH",
          "PL",
          "PT",
          "PY",
          "RO",
          "SE",
          "SG",
          "SK",
          "SV",
          "TH",
          "TR",
          "TW",
          "US",
          "UY",
          "VN",
          "ZA"
        ],
        "disc_number": 1,
        "duration_ms": 240213,
        "explicit": false,
        "external_ids": {
          "isrc": "GBAHT0500592"
        },
        "external_urls": {
          "spotify": "https://open.spotify.com/track/3skn2lauGk7Dx6bVIt5DVj"
        },
        "href": "https://api.spotify.com/v1/tracks/3skn2lauGk7Dx6bVIt5DVj",
        "id": "3skn2lauGk7Dx6bVIt5DVj",
        "name": "Starlight",
        "popularity": 73,
        "preview_url": "https://p.scdn.co/mp3-preview/f7a1b8a270f310e43ced2720c9af5f29f6476b79?cid=774b29d4f13844c495f206cafdad9c86",
        "track_number": 2,
        "type": "track",
        "uri": "spotify:track:3skn2lauGk7Dx6bVIt5DVj"
      },
      {
        "album": {
          "album_type": "album",
          "artists": [
            {
              "external_urls": {
                "spotify": "https://open.spotify.com/artist/12Chz98pHFMPJEknJQMWvI"
              },
              "href": "https://api.spotify.com/v1/artists/12Chz98pHFMPJEknJQMWvI",
              "id": "12Chz98pHFMPJEknJQMWvI",
              "name": "Muse",
              "type": "artist",
              "uri": "spotify:artist:12Chz98pHFMPJEknJQMWvI"
            }
          ],
          "available_markets": [
            "AD",
            "AR",
            "AT",
            "AU",
            "BE",
            "BG",
            "BO",
            "BR",
            "CA",
            "CH",
            "CL",
            "CO",
            "CR",
            "CY",
            "CZ",
            "DE",
            "DK",
            "DO",
            "EC",
            "EE",
            "ES",
            "FI",
            "FR",
            "GB",
            "GR",
            "GT",
            "HK",
            "HN",
            "HU",
            "ID",
            "IE",
            "IL",
            "IS",
            "IT",
            "JP",
            "LI",
            "LT",
            "LU",
            "LV",
            "MC",
            "MT",
            "MX",
            "MY",
            "NI",
            "NL",
            "NO",
            "NZ",
            "PA",
            "PE",
            "PH",
            "PL",
            "PT",
            "PY",
            "RO",
            "SE",
            "SG",
            "SK",
            "SV",
            "TH",
            "TR",
            "TW",
            "US",
            "UY",
            "VN",
            "ZA"
          ],
          "external_urls": {
            "spotify": "https://open.spotify.com/album/0lw68yx3MhKflWFqCsGkIs"
          },
          "href": "https://api.spotify.com/v1/albums/0lw68yx3MhKflWFqCsGkIs",
          "id": "0lw68yx3MhKflWFqCsGkIs",
          "images": [
            {
              "height": 640,
              "url": "https://i.scdn.co/image/9e5288926fadb82f873ccf2b45300c3a6f65fa14",
              "width": 640
            },
            {
              "height": 300,
              "url": "https://i.scdn.co/image/f1cad0d6974d6236abd07a59106e8450d85cae24",
              "width": 300
            },
            {
              "height": 64,
              "url": "https://i.scdn.co/image/81a3f82578dc938c53efdcb405f6a3d3ebbf009f",
              "width": 64
            }
          ],
          "name": "Black Holes And Revelations",
          "release_date": "2006-06-19",
          "release_date_precision": "day",
          "type": "album",
          "uri": "spotify:album:0lw68yx3MhKflWFqCsGkIs"
        },
        "artists": [
          {
            "external_urls": {
              "spotify": "https://open.spotify.com/artist/12Chz98pHFMPJEknJQMWvI"
            },
            "href": "https://api.spotify.com/v1/artists/12Chz98pHFMPJEknJQMWvI",
            "id": "12Chz98pHFMPJEknJQMWvI",
            "name": "Muse",
            "type": "artist",
            "uri": "spotify:artist:12Chz98pHFMPJEknJQMWvI"
          }
        ],
        "available_markets": [
          "AD",
          "AR",
          "AT",
          "AU",
          "BE",
          "BG",
          "BO",
          "BR",
          "CA",
          "CH",
          "CL",
          "CO",
          "CR",
          "CY",
          "CZ",
          "DE",
          "DK",
          "DO",
          "EC",
          "EE",
          "ES",
          "FI",
          "FR",
          "GB",
          "GR",
          "GT",
          "HK",
          "HN",
          "HU",
          "ID",
          "IE",
          "IL",
          "IS",
          "IT",
          "JP",
          "LI",
          "LT",
          "LU",
          "LV",
          "MC",
          "MT",
          "MX",
          "MY",
          "NI",
          "NL",
          "NO",
          "NZ",
          "PA",
          "PE",
          "PH",
          "PL",
          "PT",
          "PY",
          "RO",
          "SE",
          "SG",
          "SK",
          "SV",
          "TH",
          "TR",
          "TW",
          "US",
          "UY",
          "VN",
          "ZA"
        ],
        "disc_number": 1,
        "duration_ms": 212439,
        "explicit": false,
        "external_ids": {
          "isrc": "GBAHT0500593"
        },
        "external_urls": {
          "spotify": "https://open.spotify.com/track/3lPr8ghNDBLc2uZovNyLs9"
        },
        "href": "https://api.spotify.com/v1/tracks/3lPr8ghNDBLc2uZovNyLs9",
        "id": "3lPr8ghNDBLc2uZovNyLs9",
        "name": "Supermassive Black Hole",
        "popularity": 73,
        "preview_url": "https://p.scdn.co/mp3-preview/7ab3e38ce1671da3a185d8685981983a6f39b7bd?cid=774b29d4f13844c495f206cafdad9c86",
        "track_number": 3,
        "type": "track",
        "uri": "spotify:track:3lPr8ghNDBLc2uZovNyLs9"
      }
    ],
    "limit": 3,
    "next": "https://api.spotify.com/v1/search?query=Muse&type=track&market=DK&offset=3&limit=3",
    "offset": 0,
    "previous": null,
    "total": 11974
  }
}